waves/dump.vcd
$date
	Sat Jun  8 15:42:04 2024
$end
$version
	Icarus Verilog
$end
$timescale
	1s
$end
$scope module SPI_Master_TB $end
$var wire 1 ! w_SPI_MOSI $end
$var wire 1 " w_SPI_Clk $end
$var wire 1 # w_Master_TX_Ready $end
$var wire 1 $ r_Master_RX_DV $end
$var wire 8 % r_Master_RX_Byte [7:0] $end
$var parameter 32 & CLKS_PER_HALF_BIT $end
$var parameter 32 ' MAIN_CLK_DELAY $end
$var parameter 32 ( SPI_MODE $end
$var reg 1 ) r_Clk $end
$var reg 8 * r_Master_TX_Byte [7:0] $end
$var reg 1 + r_Master_TX_DV $end
$var reg 1 , r_Rst_L $end
$scope module SPI_Master_UUT $end
$var wire 1 ) i_Clk $end
$var wire 1 , i_Rst_L $end
$var wire 8 - i_TX_Byte [7:0] $end
$var wire 1 + i_TX_DV $end
$var wire 1 . w_CPHA $end
$var wire 1 / w_CPOL $end
$var wire 1 ! i_SPI_MISO $end
$var parameter 32 0 CLKS_PER_HALF_BIT $end
$var parameter 32 1 SPI_MODE $end
$var reg 8 2 o_RX_Byte [7:0] $end
$var reg 1 $ o_RX_DV $end
$var reg 1 " o_SPI_Clk $end
$var reg 1 ! o_SPI_MOSI $end
$var reg 1 # o_TX_Ready $end
$var reg 1 3 r_Leading_Edge $end
$var reg 3 4 r_RX_Bit_Count [2:0] $end
$var reg 1 5 r_SPI_Clk $end
$var reg 3 6 r_SPI_Clk_Count [2:0] $end
$var reg 5 7 r_SPI_Clk_Edges [4:0] $end
$var reg 3 8 r_TX_Bit_Count [2:0] $end
$var reg 8 9 r_TX_Byte [7:0] $end
$var reg 1 : r_TX_DV $end
$var reg 1 ; r_Trailing_Edge $end
$upscope $end
$scope task SendSingleByte $end
$var reg 8 < data [7:0] $end
$upscope $end
$upscope $end
$enddefinitions $end
$comment Show the parameter values. $end
$dumpall
b11 1
b100 0
b11 (
b10 '
b100 &
$end
#0
$dumpvars
bx <
x;
x:
bx 9
bx 8
bx 7
bx 6
x5
bx 4
x3
bx 2
1/
1.
b0 -
0,
0+
b0 *
0)
bx %
x$
x#
x"
x!
$end
#2
b0 6
15
0;
03
b0 7
0#
0:
b0 9
b111 8
0!
b111 4
0$
b0 %
b0 2
1"
1)
#4
0)
#6
1)
#8
0)
#10
1)
#12
0)
#14
1)
#16
0)
#18
1)
#20
0)
#22
1)
#24
0)
#26
1)
#28
0)
#30
1)
#32
0)
#34
1)
#36
0)
#38
1)
#40
0)
#42
1)
#44
0)
#46
1)
#48
0)
#50
1)
#52
0)
#54
1)
#56
0)
#58
1)
#60
0)
#62
1)
#64
0)
#66
1)
#68
0)
#70
1)
#72
0)
#74
1)
#76
0)
#78
1#
b11000001 <
1,
1)
#80
0)
#82
1+
b11000001 *
b11000001 -
1)
#84
0)
#86
b11000001 9
1:
b10000 7
0#
0+
1)
#88
0)
#90
b1 6
0:
1)
#92
0)
#94
b10 6
1)
#96
0)
#98
b11 6
1)
#100
0)
#102
05
b100 6
13
b1111 7
1)
#104
0)
#106
b101 6
03
1!
b110 8
0"
1)
#108
0)
#110
b110 6
1)
#112
0)
#114
b111 6
1)
#116
0)
#118
15
b0 6
1;
b1110 7
1)
#120
0)
#122
b1 6
0;
b110 4
b10000000 %
b10000000 2
1"
1)
#124
0)
#126
b10 6
1)
#128
0)
#130
b11 6
1)
#132
0)
#134
05
b100 6
13
b1101 7
1)
#136
0)
#138
b101 6
03
b101 8
0"
1)
#140
0)
#142
b110 6
1)
#144
0)
#146
b111 6
1)
#148
0)
#150
15
b0 6
1;
b1100 7
1)
#152
0)
#154
b1 6
0;
b101 4
b11000000 %
b11000000 2
1"
1)
#156
0)
#158
b10 6
1)
#160
0)
#162
b11 6
1)
#164
0)
#166
05
b100 6
13
b1011 7
1)
#168
0)
#170
b101 6
03
0!
b100 8
0"
1)
#172
0)
#174
b110 6
1)
#176
0)
#178
b111 6
1)
#180
0)
#182
15
b0 6
1;
b1010 7
1)
#184
0)
#186
b1 6
0;
b100 4
1"
1)
#188
0)
#190
b10 6
1)
#192
0)
#194
b11 6
1)
#196
0)
#198
05
b100 6
13
b1001 7
1)
#200
0)
#202
b101 6
03
b11 8
0"
1)
#204
0)
#206
b110 6
1)
#208
0)
#210
b111 6
1)
#212
0)
#214
15
b0 6
1;
b1000 7
1)
#216
0)
#218
b1 6
0;
b11 4
1"
1)
#220
0)
#222
b10 6
1)
#224
0)
#226
b11 6
1)
#228
0)
#230
05
b100 6
13
b111 7
1)
#232
0)
#234
b101 6
03
b10 8
0"
1)
#236
0)
#238
b110 6
1)
#240
0)
#242
b111 6
1)
#244
0)
#246
15
b0 6
1;
b110 7
1)
#248
0)
#250
b1 6
0;
b10 4
1"
1)
#252
0)
#254
b10 6
1)
#256
0)
#258
b11 6
1)
#260
0)
#262
05
b100 6
13
b101 7
1)
#264
0)
#266
b101 6
03
b1 8
0"
1)
#268
0)
#270
b110 6
1)
#272
0)
#274
b111 6
1)
#276
0)
#278
15
b0 6
1;
b100 7
1)
#280
0)
#282
b1 6
0;
b1 4
1"
1)
#284
0)
#286
b10 6
1)
#288
0)
#290
b11 6
1)
#292
0)
#294
05
b100 6
13
b11 7
1)
#296
0)
#298
b101 6
03
b0 8
0"
1)
#300
0)
#302
b110 6
1)
#304
0)
#306
b111 6
1)
#308
0)
#310
15
b0 6
1;
b10 7
1)
#312
0)
#314
b1 6
0;
b0 4
1"
1)
#316
0)
#318
b10 6
1)
#320
0)
#322
b11 6
1)
#324
0)
#326
05
b100 6
13
b1 7
1)
#328
0)
#330
b101 6
03
1!
b111 8
0"
1)
#332
0)
#334
b110 6
1)
#336
0)
#338
b111 6
1)
#340
0)
#342
15
b0 6
1;
b0 7
1)
#344
0)
#346
b10111110 <
1#
0;
1$
b111 4
b11000001 %
b11000001 2
1"
1)
#348
0)
#350
0$
1+
b10111110 *
b10111110 -
1)
#352
0)
#354
b10000 7
0#
b10111110 9
1:
0+
1)
#356
0)
#358
0:
b1 6
1)
#360
0)
#362
b10 6
1)
#364
0)
#366
b11 6
1)
#368
0)
#370
05
b100 6
13
b1111 7
1)
#372
0)
#374
0"
b110 8
b101 6
03
1)
#376
0)
#378
b110 6
1)
#380
0)
#382
b111 6
1)
#384
0)
#386
15
b0 6
1;
b1110 7
1)
#388
0)
#390
1"
b110 4
b1 6
0;
1)
#392
0)
#394
b10 6
1)
#396
0)
#398
b11 6
1)
#400
0)
#402
05
b100 6
13
b1101 7
1)
#404
0)
#406
0"
0!
b101 8
b101 6
03
1)
#408
0)
#410
b110 6
1)
#412
0)
#414
b111 6
1)
#416
0)
#418
15
b0 6
1;
b1100 7
1)
#420
0)
#422
1"
b101 4
b10000001 %
b10000001 2
b1 6
0;
1)
#424
0)
#426
b10 6
1)
#428
0)
#430
b11 6
1)
#432
0)
#434
05
b100 6
13
b1011 7
1)
#436
0)
#438
0"
1!
b100 8
b101 6
03
1)
#440
0)
#442
b110 6
1)
#444
0)
#446
b111 6
1)
#448
0)
#450
15
b0 6
1;
b1010 7
1)
#452
0)
#454
1"
b100 4
b10100001 %
b10100001 2
b1 6
0;
1)
#456
0)
#458
b10 6
1)
#460
0)
#462
b11 6
1)
#464
0)
#466
05
b100 6
13
b1001 7
1)
#468
0)
#470
0"
b11 8
b101 6
03
1)
#472
0)
#474
b110 6
1)
#476
0)
#478
b111 6
1)
#480
0)
#482
15
b0 6
1;
b1000 7
1)
#484
0)
#486
1"
b11 4
b10110001 %
b10110001 2
b1 6
0;
1)
#488
0)
#490
b10 6
1)
#492
0)
#494
b11 6
1)
#496
0)
#498
05
b100 6
13
b111 7
1)
#500
0)
#502
0"
b10 8
b101 6
03
1)
#504
0)
#506
b110 6
1)
#508
0)
#510
b111 6
1)
#512
0)
#514
15
b0 6
1;
b110 7
1)
#516
0)
#518
1"
b10 4
b10111001 %
b10111001 2
b1 6
0;
1)
#520
0)
#522
b10 6
1)
#524
0)
#526
b11 6
1)
#528
0)
#530
05
b100 6
13
b101 7
1)
#532
0)
#534
0"
b1 8
b101 6
03
1)
#536
0)
#538
b110 6
1)
#540
0)
#542
b111 6
1)
#544
0)
#546
15
b0 6
1;
b100 7
1)
#548
0)
#550
1"
b1 4
b10111101 %
b10111101 2
b1 6
0;
1)
#552
0)
#554
b10 6
1)
#556
0)
#558
b11 6
1)
#560
0)
#562
05
b100 6
13
b11 7
1)
#564
0)
#566
0"
b0 8
b101 6
03
1)
#568
0)
#570
b110 6
1)
#572
0)
#574
b111 6
1)
#576
0)
#578
15
b0 6
1;
b10 7
1)
#580
0)
#582
1"
b0 4
b10111111 %
b10111111 2
b1 6
0;
1)
#584
0)
#586
b10 6
1)
#588
0)
#590
b11 6
1)
#592
0)
#594
05
b100 6
13
b1 7
1)
#596
0)
#598
0"
0!
b111 8
b101 6
03
1)
#600
0)
#602
b110 6
1)
#604
0)
#606
b111 6
1)
#608
0)
#610
15
b0 6
1;
b0 7
1)
#612
0)
#614
b11101111 <
1"
1$
b111 4
b10111110 %
b10111110 2
1#
0;
1)
#616
0)
#618
0$
1+
b11101111 *
b11101111 -
1)
#620
0)
#622
b11101111 9
1:
b10000 7
0#
0+
1)
#624
0)
#626
b1 6
0:
1)
#628
0)
#630
b10 6
1)
#632
0)
#634
b11 6
1)
#636
0)
#638
05
b100 6
13
b1111 7
1)
#640
0)
#642
b101 6
03
1!
b110 8
0"
1)
#644
0)
#646
b110 6
1)
#648
0)
#650
b111 6
1)
#652
0)
#654
15
b0 6
1;
b1110 7
1)
#656
0)
#658
b1 6
0;
b110 4
1"
1)
#660
0)
#662
b10 6
1)
#664
0)
#666
b11 6
1)
#668
0)
#670
05
b100 6
13
b1101 7
1)
#672
0)
#674
b101 6
03
b101 8
0"
1)
#676
0)
#678
b110 6
1)
#680
0)
#682
b111 6
1)
#684
0)
#686
15
b0 6
1;
b1100 7
1)
#688
0)
#690
b1 6
0;
b101 4
b11111110 %
b11111110 2
1"
1)
#692
0)
#694
b10 6
1)
#696
0)
#698
b11 6
1)
#700
0)
#702
05
b100 6
13
b1011 7
1)
#704
0)
#706
b101 6
03
b100 8
0"
1)
#708
0)
#710
b110 6
1)
#712
0)
#714
b111 6
1)
#716
0)
#718
15
b0 6
1;
b1010 7
1)
#720
0)
#722
b1 6
0;
b100 4
1"
1)
#724
0)
#726
b10 6
1)
#728
0)
#730
b11 6
1)
#732
0)
#734
05
b100 6
13
b1001 7
1)
#736
0)
#738
b101 6
03
0!
b11 8
0"
1)
#740
0)
#742
b110 6
1)
#744
0)
#746
b111 6
1)
#748
0)
#750
15
b0 6
1;
b1000 7
1)
#752
0)
#754
b1 6
0;
b11 4
b11101110 %
b11101110 2
1"
1)
#756
0)
#758
b10 6
1)
#760
0)
#762
b11 6
1)
#764
0)
#766
05
b100 6
13
b111 7
1)
#768
0)
#770
b101 6
03
1!
b10 8
0"
1)
#772
0)
#774
b110 6
1)
#776
0)
#778
b111 6
1)
#780
0)
#782
15
b0 6
1;
b110 7
1)
#784
0)
#786
b1 6
0;
b10 4
1"
1)
#788
0)
#790
b10 6
1)
#792
0)
#794
b11 6
1)
#796
0)
#798
05
b100 6
13
b101 7
1)
#800
0)
#802
b101 6
03
b1 8
0"
1)
#804
0)
#806
b110 6
1)
#808
0)
#810
b111 6
1)
#812
0)
#814
15
b0 6
1;
b100 7
1)
#816
0)
#818
b1 6
0;
b1 4
1"
1)
#820
0)
#822
b10 6
1)
#824
0)
#826
b11 6
1)
#828
0)
#830
05
b100 6
13
b11 7
1)
#832
0)
#834
b101 6
03
b0 8
0"
1)
#836
0)
#838
b110 6
1)
#840
0)
#842
b111 6
1)
#844
0)
#846
15
b0 6
1;
b10 7
1)
#848
0)
#850
b1 6
0;
b0 4
1"
1)
#852
0)
#854
b10 6
1)
#856
0)
#858
b11 6
1)
#860
0)
#862
05
b100 6
13
b1 7
1)
#864
0)
#866
b101 6
03
b111 8
0"
1)
#868
0)
#870
b110 6
1)
#872
0)
#874
b111 6
1)
#876
0)
#878
15
b0 6
1;
b0 7
1)
#880
0)
#882
1#
0;
1$
b111 4
b11101111 %
b11101111 2
1"
1)
#884
0)
#886
0$
1)
